<svg version="1.1"
	 xmlns="http://www.w3.org/2000/svg" xmlns:xlink="http://www.w3.org/1999/xlink" xmlns:a="http://ns.adobe.com/AdobeSVGViewerExtensions/3.0/"
	 x="0px" y="0px" width="23.7px" height="19.9px" viewBox="0 0 23.7 19.9" style="enable-background:new 0 0 23.7 19.9;"
	 xml:space="preserve">
    <g>
        <path class="st0" d="M23,6.5c0.2,0.2,0.2,0.6,0,0.9l-9.7,9.7c-0.2,0.2-0.6,0.2-0.9,0l-5.8-5.8c-0.2-0.2-0.2-0.6,0-0.9l9.7-9.7
            c0.2-0.2,0.6-0.2,0.9,0L23,6.5z"/>
        <polyline class="st0" points="6.4,10.8 14.8,8.9 16.7,0.5 	"/>
        <line class="st0" x1="5.4" y1="13.7" x2="0.5" y2="18.6"/>
        <line class="st0" x1="7.5" y1="15.7" x2="4.2" y2="19"/>
        <line class="st0" x1="9.5" y1="17.8" x2="7.9" y2="19.4"/>
    </g>
</svg>