<svg version="1.1"
	 xmlns="http://www.w3.org/2000/svg" xmlns:xlink="http://www.w3.org/1999/xlink" xmlns:a="http://ns.adobe.com/AdobeSVGViewerExtensions/3.0/"
	 x="0px" y="0px" width="23.9px" height="23.9px" viewBox="0 0 23.9 23.9" style="enable-background:new 0 0 23.9 23.9;"
	 xml:space="preserve">
	<polyline points="18.7,16.4 18.7,13.5 20.6,13.5 	"/>
	<line x1="18.7" y1="15" x2="20.3" y2="15"/>
	<path d="M22.4,10.5H9.5c-0.6,0-1,0.5-1,1.1v6.9c0,0.6,0.5,1.1,1,1.1h12.9c0.6,0,1-0.5,1-1.1v-6.9
		C23.4,10.9,23,10.5,22.4,10.5z"/>
	<polyline points="14.3,0.5 14.3,4.5 18.4,4.5 	"/>
	<path d="M18.4,8.4V4.5c0-0.2-0.1-0.3-0.2-0.4l-3.3-3.3c-0.1-0.1-0.4-0.2-0.6-0.2l-13,0c-0.4,0-0.8,0.4-0.8,0.8v21.3
		c0,0.4,0.4,0.8,0.8,0.8h16.3c0.4,0,0.8-0.4,0.8-0.8v-1.1"/>
	<path d="M11.5,16.4v-2.9h1.1c0,0,0.9,0,0.9,0.7c0,0.8-0.9,0.8-0.9,0.8l-1.1,0"/>
	<path d="M15.8,16.4c0.7,0,1.3-0.6,1.3-1.4c0-0.8-0.6-1.4-1.3-1.4l0,0h-1v2.9L15.8,16.4L15.8,16.4z"/>
</svg>