<svg version="1.1"
	 xmlns="http://www.w3.org/2000/svg" xmlns:xlink="http://www.w3.org/1999/xlink" xmlns:a="http://ns.adobe.com/AdobeSVGViewerExtensions/3.0/"
	 x="0px" y="0px" width="30px" height="30px" viewBox="0 0 30 30" style="enable-background:new 0 0 30 30;" xml:space="preserve">
	<line x1="5.5" y1="24.5" x2="24.6" y2="5.5"/>
	<rect x="0.5" y="0.5" width="29" height="29"/>
	<polyline points="5.5,17.5 5.5,24.5 12.6,24.5 	"/>
	<polyline points="24.6,12.5 24.6,5.5 17.5,5.5 	"/>
</svg>