<svg version="1.1"
	 xmlns="http://www.w3.org/2000/svg" xmlns:xlink="http://www.w3.org/1999/xlink" xmlns:a="http://ns.adobe.com/AdobeSVGViewerExtensions/3.0/"
	 x="0px" y="0px" width="23.6px" height="22.4px" viewBox="0 0 23.6 22.4" style="enable-background:new 0 0 23.6 22.4;"
	 xml:space="preserve">
<g>
	<path class="st0" d="M18.9,12.3l4-2.9c0.5-0.4,0.2-1.2-0.4-1.2L14.9,8l-2.5-7c-0.2-0.6-1.1-0.6-1.3,0L8.7,8L1.2,8.1
		C0.5,8.2,0.3,9,0.8,9.4l6,4.5L4.6,21c-0.2,0.6,0.5,1.1,1,0.8l5.7-3.9"/>
	<line class="st0" x1="17.4" y1="13.9" x2="17.4" y2="21.8"/>
	<line class="st0" x1="13.4" y1="17.9" x2="21.3" y2="17.9"/>
</g>
</svg>
